Øvelser/Øvelse_1_filer/10V/tek0007CH1.csv

Model,MSO3014
Firmware Version,2.38

Waveform Type,ANALOG
Point Format,Y
Horizontal Units,s
Horizontal Scale,2
Horizontal Delay,0
Sample Interval,0.0002
Record Length,100000
Gating,0.0% to 100.0%
Probe Attenuation,1
Vertical Units,V
Vertical Offset,0
Vertical Scale,2
Vertical Position,-3.02
,
,
,
Label,
TIME,CH1
-1.0000e+01,2.28
-9.9998e+00,2.12
-9.9996e+00,2.12
-9.9994e+00,2.12
-9.9992e+00,2.12
-9.9990e+00,2.04
-9.9988e+00,2.12
-9.9986e+00,2.04
-9.9984e+00,2.04
-9.9982e+00,2.04
-9.9980e+00,1.96
-9.9978e+00,2.28
-9.9976e+00,2.04
-9.9974e+00,2.04
-9.9972e+00,2.2
-9.9970e+00,2.2
-9.9968e+00,2.12
-9.9966e+00,2.12
-9.9964e+00,2.12
-9.9962e+00,2.12
-9.9960e+00,2.04
-9.9958e+00,2.04
-9.9956e+00,2.04
-9.9954e+00,2.12
-9.9952e+00,2.04
-9.9950e+00,1.96
-9.9948e+00,2.04
-9.9946e+00,2.12
-9.9944e+00,2.12
-9.9942e+00,2.12
-9.9940e+00,2.04
-9.9938e+00,2.04
-9.9936e+00,2.2
-9.9934e+00,2.2
-9.9932e+00,2.12
-9.9930e+00,2.12
-9.9928e+00,2.04
-9.9926e+00,2.12
-9.9924e+00,2.04
-9.9922e+00,2.04
-9.9920e+00,2.12
-9.9918e+00,2.12
-9.9916e+00,2.12
-9.9914e+00,2.12
-9.9912e+00,1.96
-9.9910e+00,1.96
-9.9908e+00,2.12
-9.9906e+00,2.12
-9.9904e+00,2.04
-9.9902e+00,2.04
-9.9900e+00,2.2
-9.9898e+00,1.96
-9.9896e+00,2.12
-9.9894e+00,2.12
-9.9892e+00,2.12
-9.9890e+00,2.12
-9.9888e+00,2.12
-9.9886e+00,2.28
-9.9884e+00,2.12
-9.9882e+00,2.12
-9.9880e+00,2.2
-9.9878e+00,2.2
-9.9876e+00,2.28
-9.9874e+00,2.12
-9.9872e+00,2.12
-9.9870e+00,2.12
-9.9868e+00,2.12
-9.9866e+00,2.12
-9.9864e+00,2.2
-9.9862e+00,2.12
-9.9860e+00,2.2
-9.9858e+00,2.2
-9.9856e+00,2.12
-9.9854e+00,2.04
-9.9852e+00,2.12
-9.9850e+00,1.96
-9.9848e+00,2.2
-9.9846e+00,2.12
-9.9844e+00,2.12
-9.9842e+00,2.12
-9.9840e+00,2.12
-9.9838e+00,2.12
-9.9836e+00,2.12
-9.9834e+00,2.12
-9.9832e+00,2.04
-9.9830e+00,2.2
-9.9828e+00,2.04
-9.9826e+00,2.12
-9.9824e+00,2.04
-9.9822e+00,2.2
-9.9820e+00,2.2
-9.9818e+00,2.2
-9.9816e+00,2.12
-9.9814e+00,2.12
-9.9812e+00,2.04
-9.9810e+00,2.2
-9.9808e+00,2.12
-9.9806e+00,2.12
-9.9804e+00,2.12
-9.9802e+00,2.12
-9.9800e+00,2.12
-9.9798e+00,2.2
-9.9796e+00,2.04
-9.9794e+00,2.2
-9.9792e+00,2.12
-9.9790e+00,2.12
-9.9788e+00,2.04
-9.9786e+00,2.12
-9.9784e+00,2.2
-9.9782e+00,2.12
-9.9780e+00,2.12
-9.9778e+00,2.12
-9.9776e+00,2.12
-9.9774e+00,2.12
-9.9772e+00,2.2
-9.9770e+00,2.04
-9.9768e+00,2.04
-9.9766e+00,2.04
-9.9764e+00,2.04
-9.9762e+00,1.8
-9.9760e+00,2.04
-9.9758e+00,2.12
-9.9756e+00,2.12
-9.9754e+00,2.12
-9.9752e+00,2.04
-9.9750e+00,2.2
-9.9748e+00,2.12
-9.9746e+00,2.12
-9.9744e+00,2.2
-9.9742e+00,2.04
-9.9740e+00,2.12
-9.9738e+00,2.2
-9.9736e+00,2.12
-9.9734e+00,2.12
-9.9732e+00,2.04
-9.9730e+00,2.12
-9.9728e+00,2.2
-9.9726e+00,2.12
-9.9724e+00,2.12
-9.9722e+00,2.2
-9.9720e+00,2.2
-9.9718e+00,2.12
-9.9716e+00,2.12
-9.9714e+00,2.2
-9.9712e+00,2.2
-9.9710e+00,2.12
-9.9708e+00,2.12
-9.9706e+00,2.12
-9.9704e+00,2.12
-9.9702e+00,2.04
-9.9700e+00,2.12
-9.9698e+00,2.04
-9.9696e+00,2.12
-9.9694e+00,2.04
-9.9692e+00,2.12
-9.9690e+00,2.12
-9.9688e+00,2.2
-9.9686e+00,2.12
-9.9684e+00,2.12
-9.9682e+00,2.04
-9.9680e+00,2.12
-9.9678e+00,2.04
-9.9676e+00,2.12
-9.9674e+00,2.12
-9.9672e+00,2.04
-9.9670e+00,2.2
-9.9668e+00,2.12
-9.9666e+00,2.12
-9.9664e+00,2.28
-9.9662e+00,2.04
-9.9660e+00,2.04
-9.9658e+00,2.12
-9.9656e+00,2.12
-9.9654e+00,2.28
-9.9652e+00,2.12
-9.9650e+00,2.2
-9.9648e+00,2.28
-9.9646e+00,2.04
-9.9644e+00,2.04
-9.9642e+00,1.96
-9.9640e+00,2.12
-9.9638e+00,2.04
-9.9636e+00,2.12
-9.9634e+00,2.04
-9.9632e+00,2.12
-9.9630e+00,1.96
-9.9628e+00,2.04
-9.9626e+00,2.12
-9.9624e+00,1.96
-9.9622e+00,2.12
-9.9620e+00,2.12
-9.9618e+00,2.04
-9.9616e+00,2.12
-9.9614e+00,2.2
-9.9612e+00,2.12
-9.9610e+00,2.12
-9.9608e+00,2.12
-9.9606e+00,1.96
-9.9604e+00,2.12
-9.9602e+00,2.2
-9.9600e+00,2.04
-9.9598e+00,1.96
-9.9596e+00,2.04
-9.9594e+00,2.04
-9.9592e+00,1.88
-9.9590e+00,2.12
-9.9588e+00,2.04
-9.9586e+00,2.2
-9.9584e+00,2.12
-9.9582e+00,2.12
-9.9580e+00,2.2
-9.9578e+00,2.12
-9.9576e+00,2.2
-9.9574e+00,2.12
-9.9572e+00,1.96
-9.9570e+00,2.12
-9.9568e+00,2.2
-9.9566e+00,1.96
-9.9564e+00,2.04
-9.9562e+00,2.2
-9.9560e+00,2.12
-9.9558e+00,2.12
-9.9556e+00,2.12
-9.9554e+00,2.04
-9.9552e+00,1.96
-9.9550e+00,2.04
-9.9548e+00,2.12
-9.9546e+00,2.12
-9.9544e+00,2.12
-9.9542e+00,2.04
-9.9540e+00,2.28
-9.9538e+00,2.12
-9.9536e+00,2.12
-9.9534e+00,2.04
-9.9532e+00,2.04
-9.9530e+00,2.04
-9.9528e+00,2.12
-9.9526e+00,2.12
-9.9524e+00,2.12
-9.9522e+00,2.12
-9.9520e+00,2.12
-9.9518e+00,2.2
-9.9516e+00,2.04
-9.9514e+00,2.04
-9.9512e+00,2.2
-9.9510e+00,2.04
-9.9508e+00,2.2
-9.9506e+00,2.2
-9.9504e+00,2.12
-9.9502e+00,2.12
-9.9500e+00,1.96
-9.9498e+00,2.04
-9.9496e+00,2.12
-9.9494e+00,2.2
-9.9492e+00,2.04
-9.9490e+00,1.96
-9.9488e+00,2.12
-9.9486e+00,2.12
-9.9484e+00,2.12
-9.9482e+00,2.2
-9.9480e+00,2.04
-9.9478e+00,2.12
-9.9476e+00,2.2
-9.9474e+00,2.12
-9.9472e+00,2.12
-9.9470e+00,2.12
-9.9468e+00,2.12
-9.9466e+00,2.2
-9.9464e+00,2.12
-9.9462e+00,2.28
-9.9460e+00,2.04
-9.9458e+00,2.04
-9.9456e+00,2.2
-9.9454e+00,2.04
-9.9452e+00,2.04
-9.9450e+00,2.12
-9.9448e+00,2.04
-9.9446e+00,2.12
-9.9444e+00,2.04
-9.9442e+00,2.28
-9.9440e+00,2.04
-9.9438e+00,2.12
-9.9436e+00,2.12
-9.9434e+00,2.12
-9.9432e+00,2.12
-9.9430e+00,2.04
-9.9428e+00,2.12
-9.9426e+00,2.12
-9.9424e+00,2.2
-9.9422e+00,2.2
-9.9420e+00,2.12
-9.9418e+00,2.12
-9.9416e+00,2.12
-9.9414e+00,2.12
-9.9412e+00,2.2
-9.9410e+00,2.12
-9.9408e+00,2.04
-9.9406e+00,2.12
-9.9404e+00,2.2
-9.9402e+00,2.12
-9.9400e+00,2.04
-9.9398e+00,2.2
-9.9396e+00,2.04
-9.9394e+00,2.36
-9.9392e+00,2.2
-9.9390e+00,1.96
-9.9388e+00,2.12
-9.9386e+00,2.2
-9.9384e+00,2.04
-9.9382e+00,2.2
-9.9380e+00,2.12
-9.9378e+00,2.12
-9.9376e+00,2.12
-9.9374e+00,2.12
-9.9372e+00,2.12
-9.9370e+00,2.12
-9.9368e+00,2.12
-9.9366e+00,2.12
-9.9364e+00,2.12
-9.9362e+00,2.2
-9.9360e+00,2.2
-9.9358e+00,2.12
-9.9356e+00,2.04
-9.9354e+00,2.2
-9.9352e+00,1.96
-9.9350e+00,2.12
-9.9348e+00,2.12
-9.9346e+00,2.12
-9.9344e+00,1.96
-9.9342e+00,2.2
-9.9340e+00,2.04
-9.9338e+00,2.12
-9.9336e+00,2.12
-9.9334e+00,2.04
-9.9332e+00,2.04
-9.9330e+00,2.2
-9.9328e+00,2.12
-9.9326e+00,2.04
-9.9324e+00,2.2
-9.9322e+00,2.12
-9.9320e+00,2.12
-9.9318e+00,2.04
-9.9316e+00,2.2
-9.9314e+00,2.12
-9.9312e+00,2.2
-9.9310e+00,2.2
-9.9308e+00,2.2
-9.9306e+00,2.04
-9.9304e+00,1.96
-9.9302e+00,2.04
-9.9300e+00,2.2
-9.9298e+00,2.04
-9.9296e+00,2.2
-9.9294e+00,2.2
-9.9292e+00,2.2
-9.9290e+00,2.12
-9.9288e+00,2.2
-9.9286e+00,1.88
-9.9284e+00,2.12
-9.9282e+00,2.2
-9.9280e+00,2.04
-9.9278e+00,2.04
-9.9276e+00,2.04
-9.9274e+00,2.04
-9.9272e+00,2.12
-9.9270e+00,2.12
-9.9268e+00,2.04
-9.9266e+00,2.2
-9.9264e+00,2.04
-9.9262e+00,2.12
-9.9260e+00,2.2
-9.9258e+00,2.2
-9.9256e+00,2.2
-9.9254e+00,1.96
-9.9252e+00,2.12
-9.9250e+00,2.12
-9.9248e+00,2.04
-9.9246e+00,2.12
-9.9244e+00,2.04
-9.9242e+00,2.12
-9.9240e+00,2.12
-9.9238e+00,2.04
-9.9236e+00,2.04
-9.9234e+00,2.04
-9.9232e+00,2.04
-9.9230e+00,2.12
-9.9228e+00,2.28
-9.9226e+00,1.96
-9.9224e+00,2.12
-9.9222e+00,2.04
-9.9220e+00,2.12
-9.9218e+00,2.12
-9.9216e+00,2.12
-9.9214e+00,2.2
-9.9212e+00,2.12
-9.9210e+00,2.04
-9.9208e+00,2.04
-9.9206e+00,2.04
-9.9204e+00,2.12
-9.9202e+00,2.12
-9.9200e+00,2.12
-9.9198e+00,2.04
-9.9196e+00,2.12
-9.9194e+00,2.04
-9.9192e+00,2.04
-9.9190e+00,2.2
-9.9188e+00,2.12
-9.9186e+00,2.12
-9.9184e+00,2.2
-9.9182e+00,1.96
-9.9180e+00,2.12
-9.9178e+00,2.12
-9.9176e+00,2.2
-9.9174e+00,2.2
-9.9172e+00,2.04
-9.9170e+00,2.04
-9.9168e+00,2.12
-9.9166e+00,2.12
-9.9164e+00,2.12
-9.9162e+00,2.2
-9.9160e+00,2.2
-9.9158e+00,2.12
-9.9156e+00,1.96
-9.9154e+00,2.12
-9.9152e+00,2.12
-9.9150e+00,2.12
-9.9148e+00,2.2
-9.9146e+00,2.12
-9.9144e+00,2.2
-9.9142e+00,1.96
-9.9140e+00,2.12
-9.9138e+00,2.12
-9.9136e+00,2.04
-9.9134e+00,2.04
-9.9132e+00,2.04
-9.9130e+00,2.12
-9.9128e+00,2.12
-9.9126e+00,2.12
-9.9124e+00,2.04
-9.9122e+00,2.2
-9.9120e+00,2.12
-9.9118e+00,2.12
-9.9116e+00,2.04
-9.9114e+00,2.12
-9.9112e+00,2.12
-9.9110e+00,2.04
-9.9108e+00,1.96
-9.9106e+00,2.04
-9.9104e+00,2.12
-9.9102e+00,2.12
-9.9100e+00,2.2
-9.9098e+00,2.12
-9.9096e+00,2.12
-9.9094e+00,2.12
-9.9092e+00,2.04
-9.9090e+00,2.04
-9.9088e+00,2.12
-9.9086e+00,2.04
-9.9084e+00,2.12
-9.9082e+00,2.12
-9.9080e+00,2.12
-9.9078e+00,2.04
-9.9076e+00,2.04
-9.9074e+00,2.04
-9.9072e+00,2.12
-9.9070e+00,2.12
-9.9068e+00,2.12
-9.9066e+00,2.12
-9.9064e+00,2.2
-9.9062e+00,2.12
-9.9060e+00,2.12
-9.9058e+00,2.04
-9.9056e+00,2.12
-9.9054e+00,2.2
-9.9052e+00,2.12
-9.9050e+00,2.12
-9.9048e+00,2.12
-9.9046e+00,2.2
-9.9044e+00,2.2
-9.9042e+00,1.96
-9.9040e+00,2.12
-9.9038e+00,2.28
-9.9036e+00,2.12
-9.9034e+00,2.12
-9.9032e+00,2.04
-9.9030e+00,2.12
-9.9028e+00,2.2
-9.9026e+00,2.04
-9.9024e+00,2.04
-9.9022e+00,2.12
-9.9020e+00,2.12
-9.9018e+00,2.12
-9.9016e+00,2.12
-9.9014e+00,2.04
-9.9012e+00,2.04
-9.9010e+00,2.04
-9.9008e+00,2.12
-9.9006e+00,2.12
-9.9004e+00,2.12
-9.9002e+00,2.04
-9.9000e+00,2.12
-9.8998e+00,2.12
-9.8996e+00,2.2
-9.8994e+00,2.12
-9.8992e+00,2.04
-9.8990e+00,2.12
-9.8988e+00,2.04
-9.8986e+00,2.2
-9.8984e+00,2.12
-9.8982e+00,2.12
-9.8980e+00,2.04
-9.8978e+00,2.04
-9.8976e+00,2.12
-9.8974e+00,2.12
-9.8972e+00,2.12
-9.8970e+00,2.2
-9.8968e+00,2.12
-9.8966e+00,2.12
-9.8964e+00,2.12
-9.8962e+00,2.12
-9.8960e+00,2.04
-9.8958e+00,2.12
-9.8956e+00,2.12
-9.8954e+00,2.04
-9.8952e+00,2.12
-9.8950e+00,2.04
-9.8948e+00,2.04
-9.8946e+00,2.12
-9.8944e+00,1.96
-9.8942e+00,2.12
-9.8940e+00,2.04
-9.8938e+00,2.12
-9.8936e+00,1.96
-9.8934e+00,2.04
-9.8932e+00,2.12
-9.8930e+00,2.12
-9.8928e+00,2.12
-9.8926e+00,2.12
-9.8924e+00,2.04
-9.8922e+00,2.04
-9.8920e+00,2.12
-9.8918e+00,2.04
-9.8916e+00,2.04
-9.8914e+00,2.04
-9.8912e+00,2.04
-9.8910e+00,2.04
-9.8908e+00,2.12
-9.8906e+00,2.04
-9.8904e+00,2.12
-9.8902e+00,2.04
-9.8900e+00,2.12
-9.8898e+00,2.2
-9.8896e+00,2.2
-9.8894e+00,2.2
-9.8892e+00,1.96
-9.8890e+00,2.12
-9.8888e+00,2.12
-9.8886e+00,2.12
-9.8884e+00,2.2
-9.8882e+00,2.12
-9.8880e+00,2.12
-9.8878e+00,2.12
-9.8876e+00,2.12
-9.8874e+00,2.04
-9.8872e+00,2.04
-9.8870e+00,1.96
-9.8868e+00,2.2
-9.8866e+00,2.04
-9.8864e+00,2.12
-9.8862e+00,2.12
-9.8860e+00,2.2
-9.8858e+00,2.12
-9.8856e+00,2.2
-9.8854e+00,2.12
-9.8852e+00,2.12
-9.8850e+00,2.12
-9.8848e+00,2.04
-9.8846e+00,2.12
-9.8844e+00,2.04
-9.8842e+00,2.12
-9.8840e+00,2.04
-9.8838e+00,2.04
-9.8836e+00,2.04
-9.8834e+00,2.12
-9.8832e+00,2.12
-9.8830e+00,2.2
-9.8828e+00,2.12
-9.8826e+00,2.04
-9.8824e+00,2.12
-9.8822e+00,2.04
-9.8820e+00,2.28
-9.8818e+00,2.12
-9.8816e+00,2.12
-9.8814e+00,2.04
-9.8812e+00,2.2
-9.8810e+00,2.2
-9.8808e+00,2.12
-9.8806e+00,2.12
-9.8804e+00,2.12
-9.8802e+00,2.12
-9.8800e+00,1.96
-9.8798e+00,2.12
-9.8796e+00,2.12
-9.8794e+00,2.2
-9.8792e+00,2.04
-9.8790e+00,2.12
-9.8788e+00,2.2
-9.8786e+00,2.12
-9.8784e+00,2.2
-9.8782e+00,2.2
-9.8780e+00,2.04
-9.8778e+00,2.04
-9.8776e+00,2.04
-9.8774e+00,1.96
-9.8772e+00,2.12
-9.8770e+00,2.04
-9.8768e+00,2.04
-9.8766e+00,2.12
-9.8764e+00,2.04
-9.8762e+00,2.2
-9.8760e+00,2.12
-9.8758e+00,2.12
-9.8756e+00,2.04
-9.8754e+00,2.2
-9.8752e+00,2.12
-9.8750e+00,2.04
-9.8748e+00,2.12
-9.8746e+00,2.04
-9.8744e+00,2.12
-9.8742e+00,2.04
-9.8740e+00,2.04
-9.8738e+00,2.28
-9.8736e+00,2.12
-9.8734e+00,2.12
-9.8732e+00,2.04
-9.8730e+00,2.12
-9.8728e+00,2.04
-9.8726e+00,2.28
-9.8724e+00,1.96
-9.8722e+00,2.28
-9.8720e+00,2.12
-9.8718e+00,2.04
-9.8716e+00,2.04
-9.8714e+00,2.12
-9.8712e+00,2.2
-9.8710e+00,2.12
-9.8708e+00,2.12
-9.8706e+00,2.12
-9.8704e+00,2.04
-9.8702e+00,2.12
-9.8700e+00,2.12
-9.8698e+00,2.04
-9.8696e+00,2.04
-9.8694e+00,1.96
-9.8692e+00,1.96
-9.8690e+00,2.12
-9.8688e+00,2.2
-9.8686e+00,2.12
-9.8684e+00,2.12
-9.8682e+00,2.04
-9.8680e+00,2.12
-9.8678e+00,2.12
-9.8676e+00,2.04
-9.8674e+00,2.04
-9.8672e+00,2.04
-9.8670e+00,2.04
-9.8668e+00,2.12
-9.8666e+00,1.96
-9.8664e+00,2.2
-9.8662e+00,2.12
-9.8660e+00,2.04
-9.8658e+00,2.12
-9.8656e+00,2.04
-9.8654e+00,2.12
-9.8652e+00,2.04
-9.8650e+00,2.2
-9.8648e+00,2.04
-9.8646e+00,2.12
-9.8644e+00,2.12
-9.8642e+00,2.12
-9.8640e+00,2.04
-9.8638e+00,2.12
-9.8636e+00,2.12
-9.8634e+00,1.96
-9.8632e+00,2.2
-9.8630e+00,2.12
-9.8628e+00,1.96
-9.8626e+00,2.2
-9.8624e+00,2.28
-9.8622e+00,2.12
-9.8620e+00,1.96
-9.8618e+00,2.12
-9.8616e+00,2.28
-9.8614e+00,2.12
-9.8612e+00,2.12
-9.8610e+00,2.2
-9.8608e+00,2.04
-9.8606e+00,1.96
-9.8604e+00,2.2
-9.8602e+00,2.04
-9.8600e+00,1.96
-9.8598e+00,2.2
-9.8596e+00,2.04
-9.8594e+00,1.96
-9.8592e+00,2.04
-9.8590e+00,2.2
-9.8588e+00,2.12
-9.8586e+00,2.12
-9.8584e+00,2.2
-9.8582e+00,2.12
-9.8580e+00,2.12
-9.8578e+00,2.2
-9.8576e+00,2.12
-9.8574e+00,2.12
-9.8572e+00,2.12
-9.8570e+00,2.12
-9.8568e+00,2.12
-9.8566e+00,2.12
-9.8564e+00,2.04
-9.8562e+00,2.04
-9.8560e+00,2.04
-9.8558e+00,2.12
-9.8556e+00,2.2
-9.8554e+00,2.04
-9.8552e+00,2.12
-9.8550e+00,2.2
-9.8548e+00,2.04
-9.8546e+00,2.04
-9.8544e+00,2.04
-9.8542e+00,2.04
-9.8540e+00,2.04
-9.8538e+00,2.12
-9.8536e+00,2.12
-9.8534e+00,2.12
-9.8532e+00,2.12
-9.8530e+00,2.04
-9.8528e+00,2.04
-9.8526e+00,2.04
-9.8524e+00,2.12
-9.8522e+00,2.04
-9.8520e+00,2.12
-9.8518e+00,2.12
-9.8516e+00,2.12
-9.8514e+00,2.04
-9.8512e+00,2.12
-9.8510e+00,2.12
-9.8508e+00,2.12
-9.8506e+00,2.12
-9.8504e+00,2.04
-9.8502e+00,2.2
-9.8500e+00,2.12
-9.8498e+00,2.12
-9.8496e+00,2.04
-9.8494e+00,2.12
-9.8492e+00,2.2
-9.8490e+00,1.96
-9.8488e+00,2.12
-9.8486e+00,2.2
-9.8484e+00,2.04
-9.8482e+00,2.12
-9.8480e+00,2.12
-9.8478e+00,2.04
-9.8476e+00,1.96
-9.8474e+00,2.2
-9.8472e+00,1.96
-9.8470e+00,2.04
-9.8468e+00,2.12
-9.8466e+00,2.2
-9.8464e+00,2.12
-9.8462e+00,2.2
-9.8460e+00,2.2
-9.8458e+00,2.12
-9.8456e+00,2.12
-9.8454e+00,2.12
-9.8452e+00,2.04
-9.8450e+00,2.12
-9.8448e+00,2.12
-9.8446e+00,2.2
-9.8444e+00,2.04
-9.8442e+00,1.96
-9.8440e+00,2.12
-9.8438e+00,2.04
-9.8436e+00,2.04
-9.8434e+00,2.2
-9.8432e+00,2.12
-9.8430e+00,2.2
-9.8428e+00,2.12
-9.8426e+00,2.12
-9.8424e+00,2.04
-9.8422e+00,2.12
-9.8420e+00,2.04
-9.8418e+00,2.12
-9.8416e+00,2.12
-9.8414e+00,2.04
-9.8412e+00,1.96
-9.8410e+00,2.12
-9.8408e+00,2.04
-9.8406e+00,2.12
-9.8404e+00,1.96
-9.8402e+00,2.12
-9.8400e+00,2.12
-9.8398e+00,2.04
-9.8396e+00,2.04
-9.8394e+00,2.12
-9.8392e+00,2.04
-9.8390e+00,2.2
-9.8388e+00,2.12
-9.8386e+00,2.2
-9.8384e+00,2.04
-9.8382e+00,2.12
-9.8380e+00,2.12
-9.8378e+00,1.96
-9.8376e+00,2.04
-9.8374e+00,2.12
-9.8372e+00,2.12
-9.8370e+00,2.04
-9.8368e+00,1.96
-9.8366e+00,2.04
-9.8364e+00,2.2
-9.8362e+00,2.12
-9.8360e+00,2.04
-9.8358e+00,2.12
-9.8356e+00,2.12
-9.8354e+00,2.04
-9.8352e+00,2.12
-9.8350e+00,2.2
-9.8348e+00,2.28
-9.8346e+00,2.12
-9.8344e+00,2.12
-9.8342e+00,2.12
-9.8340e+00,2.12
-9.8338e+00,2.2
-9.8336e+00,2.04
-9.8334e+00,2.2
-9.8332e+00,2.2
-9.8330e+00,2.04
-9.8328e+00,2.12
-9.8326e+00,2.12
-9.8324e+00,2.04
-9.8322e+00,2.12
-9.8320e+00,2.04
-9.8318e+00,2.04
-9.8316e+00,2.12
-9.8314e+00,2.04
-9.8312e+00,2.04
-9.8310e+00,2.12
-9.8308e+00,2.04
-9.8306e+00,2.04
-9.8304e+00,2.2
-9.8302e+00,2.12
-9.8300e+00,2.12
-9.8298e+00,2.12
-9.8296e+00,2.12
-9.8294e+00,2.04
-9.8292e+00,2.12
-9.8290e+00,2.2
-9.8288e+00,2.12
-9.8286e+00,2.04
-9.8284e+00,2.12
-9.8282e+00,1.88
-9.8280e+00,2.12
-9.8278e+00,2.2
-9.8276e+00,2.12
-9.8274e+00,2.12
-9.8272e+00,2.12
-9.8270e+00,2.12
-9.8268e+00,2.04
-9.8266e+00,2.2
-9.8264e+00,2.2
-9.8262e+00,2.12
-9.8260e+00,2.04
-9.8258e+00,2.04
-9.8256e+00,2.04
-9.8254e+00,2.2
-9.8252e+00,2.04
-9.8250e+00,2.12
-9.8248e+00,2.12
-9.8246e+00,1.96
-9.8244e+00,2.04
-9.8242e+00,2.04
-9.8240e+00,1.96
-9.8238e+00,2.2
-9.8236e+00,2.12
-9.8234e+00,2.12
-9.8232e+00,2.04
-9.8230e+00,2.2
-9.8228e+00,2.12
-9.8226e+00,2.12
-9.8224e+00,2.04
-9.8222e+00,2.04
-9.8220e+00,2.2
-9.8218e+00,2.28
-9.8216e+00,2.04
-9.8214e+00,2.12
-9.8212e+00,2.12
-9.8210e+00,2.12
-9.8208e+00,2.04
-9.8206e+00,2.04
-9.8204e+00,2.2
-9.8202e+00,1.96
-9.8200e+00,2.12
-9.8198e+00,2.2
-9.8196e+00,2.04
-9.8194e+00,2.04
-9.8192e+00,2.12
-9.8190e+00,2.12
-9.8188e+00,2.12
-9.8186e+00,2.04
-9.8184e+00,2.12
-9.8182e+00,2.2
-9.8180e+00,2.2
-9.8178e+00,2.12
-9.8176e+00,2.12
-9.8174e+00,2.2
-9.8172e+00,2.12
-9.8170e+00,2.04
-9.8168e+00,2.12
-9.8166e+00,2.04
-9.8164e+00,2.04
-9.8162e+00,2.04
-9.8160e+00,2.04
-9.8158e+00,2.28
-9.8156e+00,2.04
-9.8154e+00,2.04
-9.8152e+00,2.04
-9.8150e+00,2.12
-9.8148e+00,2.2
-9.8146e+00,2.2
-9.8144e+00,2.12
-9.8142e+00,2.12
-9.8140e+00,1.96
-9.8138e+00,2.12
-9.8136e+00,2.12
-9.8134e+00,2.04
-9.8132e+00,2.12
-9.8130e+00,2.12
-9.8128e+00,1.96
-9.8126e+00,2.12
-9.8124e+00,2.12
-9.8122e+00,2.12
-9.8120e+00,1.96
-9.8118e+00,2.04
-9.8116e+00,2.2
-9.8114e+00,2.04
-9.8112e+00,2.12
-9.8110e+00,2.2
-9.8108e+00,2.04
-9.8106e+00,2.28
-9.8104e+00,2.12
-9.8102e+00,2.12
-9.8100e+00,2.12
-9.8098e+00,2.12
-9.8096e+00,2.12
-9.8094e+00,2.2
-9.8092e+00,2.04
-9.8090e+00,2.2
-9.8088e+00,2.12
-9.8086e+00,2.28
-9.8084e+00,2.12
-9.8082e+00,2.12
-9.8080e+00,2.04
-9.8078e+00,2.2
-9.8076e+00,2.12
-9.8074e+00,2.2
-9.8072e+00,2.04
-9.8070e+00,2.12
-9.8068e+00,2.2
-9.8066e+00,2.04
-9.8064e+00,2.12
-9.8062e+00,2.2
-9.8060e+00,2.12
-9.8058e+00,2.12
-9.8056e+00,2.04
-9.8054e+00,2.12
-9.8052e+00,2.28
-9.8050e+00,2.12
-9.8048e+00,2.2
-9.8046e+00,2.12
-9.8044e+00,2.12
-9.8042e+00,2.12
-9.8040e+00,2.04
-9.8038e+00,2.12
-9.8036e+00,2.2
-9.8034e+00,2.12
-9.8032e+00,2.12
-9.8030e+00,2.04
-9.8028e+00,2.04
-9.8026e+00,2.2
-9.8024e+00,2.04
-9.8022e+00,2.04
-9.8020e+00,2.12
-9.8018e+00,2.12
-9.8016e+00,2.12
-9.8014e+00,2.12
-9.8012e+00,1.96
-9.8010e+00,2.2
-9.8008e+00,2.12
-9.8006e+00,2.12
-9.8004e+00,2.12
-9.8002e+00,2.04
-9.8000e+00,2.12
-9.7998e+00,2.28
-9.7996e+00,2.2
-9.7994e+00,2.04
-9.7992e+00,2.04
-9.7990e+00,2.12
-9.7988e+00,2.04
-9.7986e+00,2.12
-9.7984e+00,2.12
-9.7982e+00,2.04
-9.7980e+00,2.12
-9.7978e+00,1.96
-9.7976e+00,2.12
-9.7974e+00,2.2
-9.7972e+00,2.04
-9.7970e+00,2.2
-9.7968e+00,2.12
-9.7966e+00,2.12
-9.7964e+00,2.12
-9.7962e+00,2.04
-9.7960e+00,2.12
-9.7958e+00,2.12
-9.7956e+00,2.04
-9.7954e+00,2.04
-9.7952e+00,2.12
-9.7950e+00,2.2
-9.7948e+00,2.2
-9.7946e+00,2.12
-9.7944e+00,2.2
-9.7942e+00,2.04
-9.7940e+00,2.04
-9.7938e+00,2.12
-9.7936e+00,1.96
-9.7934e+00,2.2
-9.7932e+00,2.12
-9.7930e+00,2.12
-9.7928e+00,2.2
-9.7926e+00,2.04
-9.7924e+00,2.2
-9.7922e+00,2.2
-9.7920e+00,2.2
-9.7918e+00,1.96
-9.7916e+00,2.04
-9.7914e+00,2.2
-9.7912e+00,2.12
-9.7910e+00,2.12
-9.7908e+00,2.2
-9.7906e+00,2.04
-9.7904e+00,2.12
-9.7902e+00,2.12
-9.7900e+00,2.04
-9.7898e+00,2.2
-9.7896e+00,2.12
-9.7894e+00,2.12
-9.7892e+00,2.2
-9.7890e+00,2.2
-9.7888e+00,2.04
-9.7886e+00,2.12
-9.7884e+00,2.12
-9.7882e+00,2.04
-9.7880e+00,1.96
-9.7878e+00,2.2
-9.7876e+00,1.96
-9.7874e+00,2.12
-9.7872e+00,2.12
-9.7870e+00,2.12
-9.7868e+00,2.12
-9.7866e+00,2.2
-9.7864e+00,2.04
-9.7862e+00,1.96
-9.7860e+00,2.2
-9.7858e+00,2.12
-9.7856e+00,2.12
-9.7854e+00,2.04
-9.7852e+00,2.12
-9.7850e+00,2.12
-9.7848e+00,2.12
-9.7846e+00,2.12
-9.7844e+00,2.12
-9.7842e+00,2.12
-9.7840e+00,2.12
-9.7838e+00,2.04
-9.7836e+00,2.04
-9.7834e+00,2.2
-9.7832e+00,2.04
-9.7830e+00,2.04
-9.7828e+00,2.12
-9.7826e+00,2.12
-9.7824e+00,2.2
-9.7822e+00,2.12
-9.7820e+00,2.12
-9.7818e+00,2.04
-9.7816e+00,2.2
-9.7814e+00,2.12
-9.7812e+00,2.12
-9.7810e+00,1.96
-9.7808e+00,2.12
-9.7806e+00,2.12
-9.7804e+00,2.04
-9.7802e+00,2.2
-9.7800e+00,2.04
-9.7798e+00,1.96
-9.7796e+00,2.04
-9.7794e+00,2.12
-9.7792e+00,2.04
-9.7790e+00,2.04
-9.7788e+00,2.12
-9.7786e+00,2.12
-9.7784e+00,2.04
-9.7782e+00,1.96
-9.7780e+00,2.04
-9.7778e+00,2.12
-9.7776e+00,2.12
-9.7774e+00,1.96
-9.7772e+00,2.12
-9.7770e+00,2.12
-9.7768e+00,2.12
-9.7766e+00,2.12
-9.7764e+00,2.04
-9.7762e+00,2.04
-9.7760e+00,2.12
-9.7758e+00,2.04
-9.7756e+00,2.04
-9.7754e+00,2.12
-9.7752e+00,2.12
-9.7750e+00,2.04
-9.7748e+00,1.96
-9.7746e+00,2.12
-9.7744e+00,2.04
-9.7742e+00,2.12
-9.7740e+00,2.12
-9.7738e+00,2.12
-9.7736e+00,2.12
-9.7734e+00,2.12
-9.7732e+00,2.04
-9.7730e+00,2.2
-9.7728e+00,2.12
-9.7726e+00,2.04
-9.7724e+00,2.12
-9.7722e+00,2.04
-9.7720e+00,2.12
-9.7718e+00,1.96
-9.7716e+00,2.04
-9.7714e+00,2.12
-9.7712e+00,2.12
-9.7710e+00,2.12
-9.7708e+00,2.04
-9.7706e+00,2.12
-9.7704e+00,2.04
-9.7702e+00,2.12
-9.7700e+00,2.28
-9.7698e+00,2.12
-9.7696e+00,2.04
-9.7694e+00,2.12
-9.7692e+00,2.12
-9.7690e+00,2.04
-9.7688e+00,2.12
-9.7686e+00,2.12
-9.7684e+00,2.2
-9.7682e+00,2.12
-9.7680e+00,2.04
-9.7678e+00,1.96
-9.7676e+00,2.12
-9.7674e+00,2.12
-9.7672e+00,1.96
-9.7670e+00,2.04
-9.7668e+00,2.04
-9.7666e+00,2.12
-9.7664e+00,2.12
